test_run_dir/Immediate_Generator_Test/ImmdValGen.vcd
$date
2023-12-13T14:26+0000
$end
$version
0.2
$end
$comment

$end
$timescale 1ns  $end
$scope module ImmdValGen $end
 $var wire 12 ! _io_immd_se_T $end
 $var wire 20 " _GEN_2 $end
 $var wire 7 # _T $end
 $var wire 7 $ _io_immd_se_T_8 $end
 $var wire 20 % _io_immd_se_T_2 $end
 $var wire 10 & io_PC $end
 $var wire 20 ' _io_immd_se_T_7 $end
 $var wire 10 ( _GEN_1 $end
 $var wire 10 ) _io_immd_se_T_13 $end
 $var wire 1 * clock $end
 $var wire 21 + _io_immd_se_T_6 $end
 $var wire 32 , io_immd_se $end
 $var wire 32 - io_instr $end
 $var wire 1 . reset $end
 $var wire 20 / _GEN_3 $end
 $var wire 11 0 _io_immd_se_T_12 $end
$upscope $end
$enddefinitions $end
$dumpvars
b00000000000000000000 /
b000000000000000000000 +
b0000000000 &
b00000000000000000000 "
0.
b000000000000 !
b0000000000 (
b00000000000 0
b0000000000 )
0*
b00000000000000000000 %
b0000000 #
b00000000000000000000000000000000 ,
b0000000 $
b00000000000000000000000000000000 -
b00000000000000000000 '
$end
#0
1.
#1
1*
#6
b00101001001010010000000100010011 -
b00101001001010010000 %
0.
b00101001001010010000 '
b0000010100 (
b00000000000000010100 /
b0000010100 )
b001010010010 !
b00000010100 0
b00000000000000010100 "
b0010011 #
0*
b0010100 $
b000101001001010010000 +
b00000000000000000000001010010010 ,
#11
1*
#16
b011100000011 !
b00000111000 0
b01110000001101100010000100010011 -
b01110000001101100010 %
b00000000000000111000 "
0*
b01110000001101100010 '
b0111000 $
b001110000001101100010 +
b0000111000 (
b00000000000000111000 /
b00000000000000000000011100000011 ,
b0000111000 )
#21
1*
#26
b00000000110101010011011001110011 -
b00000000110101010011 %
b00000000110101010011 '
b0000000000 (
b00000000000000000000 /
b0000000000 )
b000000001101 !
b00000000000 0
b00000000000000000000 "
b1110011 #
0*
b0000000 $
b000000000110101010011 +
b00000000000000000000000000001101 ,
#31
1*
#36
b000000010010 !
b00000001001000110100111000010011 -
b00000001001000110100 %
b0010011 #
0*
b00000001001000110100 '
b000000001001000110100 +
b00000000000000000000000000010010 ,
#41
1*
#46
b00110011001100110111010011110011 -
b00110011001100110111 %
b00110011001100110111 '
b0000011001 (
b00000000000000011001 /
b0000011001 )
b001100110011 !
b00000011001 0
b00000000000000011001 "
b1110011 #
0*
b0011001 $
b000110011001100110111 +
b00000000000000000000001100110011 ,
#51
1*
#56
b000000110000 !
b00000000001 0
b00000011000010101011110111110011 -
b00000011000010101011 %
b00000000000000000001 "
0*
b00000011000010101011 '
b0000001 $
b000000011000010101011 +
b0000000001 (
b00000000000000000001 /
b00000000000000000000000000110000 ,
b0000000001 )
#61
1*
#66
b00101001011010010000001010010111 -
b00101001011010010000 %
b00101001011010010000 '
b0000010100 (
b00101001011010010000 /
b0000010100 )
b001010010110 !
b00000010100 0
b00000000000000010100 "
b0010111 #
0*
b0010100 $
b000101001011010010000 +
b00000000000000101001011010010000 ,
#71
1*
#76
b00000011000010101011110110110111 -
b00000011000010101011 %
b00000011000010101011 '
b0000000001 (
b00000011000010101011 /
b0000000001 )
b000000110000 !
b00000000001 0
b00000000000000000001 "
b0110111 #
0*
b0000001 $
b000000011000010101011 +
b00000000000000000011000010101011 ,
#81
1*
#86
b11001001101100000010010101101111 -
b11001001101100000010 %
b11001001101100000010 '
b0001100100 (
b11001001101100000010 /
b0001100100 )
b110010011011 !
b00001100100 0
b11001001101100000010 "
b1101111 #
0*
b1100100 $
b011001001101100000010 +
b00000000000011001001101100000010 ,
#91
1*
#96
b10010001001010010110011000100011 -
b10010001001010010110 %
b10010001001010010110 '
b0001001000 (
b00000000000001001000 /
b0001001000 )
b100100010010 !
b00001001000 0
b00000000000001001000 "
b0100011 #
0*
b1001000 $
b010010001001010010110 +
b00000000000000000000000001001000 ,
#101
1*
#106
b11011001011101110011011001100011 -
b11011001011101110011 %
b11011001011101110011 '
b0001101100 (
b00000000000001101100 /
b0001101100 )
b110110010111 !
b00001101100 0
b00000000000001101100 "
b1100011 #
0*
b1101100 $
b011011001011101110011 +
b00000000000000000000000001101100 ,
#111
1*
#116
b00000000000000000000000000000000 -
b00000000000000000000 %
b00000000000000000000 '
b0000000000 (
b00000000000000000000 /
b0000000000 )
b000000000000 !
b00000000000 0
b00000000000000000000 "
b0000000 #
0*
b0000000 $
b000000000000000000000 +
b00000000000000000000000000000000 ,
