test_run_dir/ALU_Test/ALU.vcd
$date
2023-12-12T14:07+0000
$end
$version
0.2
$end
$comment

$end
$timescale 1ns  $end
$scope module ALU $end
 $var wire 32 ! _shitfl_T_15 $end
 $var wire 31 " _shitfl_T_42 $end
 $var wire 32 # _out_T_13 $end
 $var wire 33 $ _shiftr_T_4 $end
 $var wire 1 % cmp $end
 $var wire 32 & io_out $end
 $var wire 32 ' io_in_A $end
 $var wire 1 ( _out_T_16 $end
 $var wire 28 ) _shitfl_T_24 $end
 $var wire 32 * shin $end
 $var wire 32 + _shin_T_46 $end
 $var wire 32 , _shitfl_T_18 $end
 $var wire 32 - _out_T_22 $end
 $var wire 24 . _shitfl_T_12 $end
 $var wire 24 / _shin_T_13 $end
 $var wire 1 0 _out_T_5 $end
 $var wire 32 1 _out_T_19 $end
 $var wire 1 2 _out_T_10 $end
 $var wire 32 3 _shin_T_49 $end
 $var wire 1 4 _out_T $end
 $var wire 32 5 _shin_T_34 $end
 $var wire 32 6 _shin_T_28 $end
 $var wire 32 7 _sum_T_2 $end
 $var wire 32 8 _shin_T_6 $end
 $var wire 32 9 _shin_T_16 $end
 $var wire 1 : _out_T_8 $end
 $var wire 31 ; _shin_T_43 $end
 $var wire 32 < _shitfl_T_8 $end
 $var wire 32 = _shin_T_9 $end
 $var wire 31 > _shitfl_T_44 $end
 $var wire 28 ? _shin_T_25 $end
 $var wire 1 @ _cmp_T_2 $end
 $var wire 32 A _shitfl_T_38 $end
 $var wire 32 B _shin_T_19 $end
 $var wire 32 C _shitfl_T_23 $end
 $var wire 1 D _out_T_2 $end
 $var wire 1 E _cmp_T $end
 $var wire 16 F _shitfl_T_2 $end
 $var wire 32 G _shitfl_T_47 $end
 $var wire 16 H _shin_T_3 $end
 $var wire 32 I _out_T_24 $end
 $var wire 32 J _out_T_18 $end
 $var wire 30 K _shitfl_T_32 $end
 $var wire 1 L _out_T_12 $end
 $var wire 33 M _shiftr_T_3 $end
 $var wire 32 N _shitfl_T_35 $end
 $var wire 32 O _shitfl_T_5 $end
 $var wire 24 P _shitfl_T_14 $end
 $var wire 32 Q shitfl $end
 $var wire 32 R _shitfl_T_17 $end
 $var wire 32 S _out_T_15 $end
 $var wire 1 T _sum_T $end
 $var wire 31 U _shin_T_45 $end
 $var wire 32 V _out_T_21 $end
 $var wire 32 W _shin_T_39 $end
 $var wire 1 X _out_T_1 $end
 $var wire 32 Y _shin_T_24 $end
 $var wire 30 Z _shin_T_33 $end
 $var wire 1 [ _cmp_T_4 $end
 $var wire 1 \ _out_T_4 $end
 $var wire 33 ] _sum_T_1 $end
 $var wire 32 ^ _shin_T_48 $end
 $var wire 1 _ _out_T_7 $end
 $var wire 16 ` _shin_T_5 $end
 $var wire 1 a clock $end
 $var wire 32 b _shin_T_36 $end
 $var wire 1 c _cmp_T_7 $end
 $var wire 33 d _sum_T_4 $end
 $var wire 24 e _shin_T_15 $end
 $var wire 30 f _shitfl_T_34 $end
 $var wire 32 g _shin_T_8 $end
 $var wire 32 h io_in_B $end
 $var wire 32 i _shitfl_T_43 $end
 $var wire 1 j _cmp_T_1 $end
 $var wire 32 k _shitfl_T_37 $end
 $var wire 32 l _shitfl_T_7 $end
 $var wire 1 m _out_T_14 $end
 $var wire 28 n _shitfl_T_22 $end
 $var wire 32 o _out_T_20 $end
 $var wire 32 p sum $end
 $var wire 32 q _shin_T_18 $end
 $var wire 1 r _out_T_17 $end
 $var wire 1 s shiftr_hi $end
 $var wire 32 t _shitfl_T_25 $end
 $var wire 32 u _out_T_23 $end
 $var wire 32 v _shitfl_T_13 $end
 $var wire 32 w _shitfl_T_28 $end
 $var wire 32 x _out_T_11 $end
 $var wire 33 y _shiftr_T_2 $end
 $var wire 30 z _shin_T_35 $end
 $var wire 32 { _sum_T_3 $end
 $var wire 32 | _shin_T_29 $end
 $var wire 16 } _shitfl_T_4 $end
 $var wire 32 ~ _shin_T_44 $end
 $var wire 32 "! _shin_T_38 $end
 $var wire 28 "" _shin_T_23 $end
 $var wire 5 "# shamt $end
 $var wire 4 "$ io_alu_Op $end
 $var wire 1 "% _shin_T $end
 $var wire 1 "& _out_T_9 $end
 $var wire 32 "' _shin_T_26 $end
 $var wire 1 "( _cmp_T_3 $end
 $var wire 1 ") reset $end
 $var wire 1 "* _out_T_3 $end
 $var wire 32 "+ _shitfl_T_45 $end
 $var wire 32 ", _shitfl_T_3 $end
 $var wire 32 "- _shin_T_4 $end
 $var wire 32 ". _shitfl_T_27 $end
 $var wire 32 "/ _shitfl_T_33 $end
 $var wire 32 "0 _shin_T_14 $end
 $var wire 32 "1 io_sum $end
 $var wire 32 "2 _out_T_25 $end
 $var wire 32 "3 shiftr $end
 $var wire 1 "4 _out_T_6 $end
 $var wire 1 "5 _shiftr_T_1 $end
$upscope $end
$enddefinitions $end
$dumpvars
0X
b00000000000000000000000000000000 Y
b0000000000000000 H
b00000000000000000000000000000000 <
b00000000000000000000000000000000 '
b0000000000000000000000000000000 >
b0000000000000000000000000000 n
b00000000000000000000000000000000 l
b00000000000000000000000000000000 "2
b00000000000000000000000000000000 O
b000000000000000000000000000000 f
0m
b000000000000000000000000 P
b00000000000000000000000000000000 Q
b00000000000000000000000000000000 h
b00000000000000000000000000000000 ".
b00000000000000000000000000000000 6
0")
b00000000000000000000000000000000 w
b00000000000000000000000000000000 b
0a
0L
0D
0[
0r
0@
b00000000000000000000000000000000 A
0%
b0000000000000000 `
b00000000000000000000000000000000 q
b00000000000000000000000000000000 k
b00000000000000000000000000000000 V
0"4
b00000000000000000000000000000000 9
b0000000000000000000000000000000 ;
0:
b00000000000000000000000000000000 3
b00000000000000000000000000000000 |
b00000000000000000000000000000000 J
04
0"(
b00000000000000000000000000000000 i
b000000000000000000000000000000000 ]
b000000000000000000000000 .
b00000000000000000000000000000000 "/
0"*
b00000000000000000000000000000000 "1
0E
00
b0000 "$
0(
b00000000000000000000000000000000 "+
b0000000000000000000000000000 )
b00000000000000000000000000000000 t
b00000000000000000000000000000000 B
b00000000000000000000000000000000 -
b00000000000000000000000000000000 "'
b00000000000000000000000000000000 p
b00000000000000000000000000000000 S
b00000000000000000000000000000000 "!
b0000000000000000000000000000000 U
b00000000000000000000000000000000 !
0T
b00000000000000000000000000000000 8
b00000000000000000000000000000000 #
b000000000000000000000000 e
b000000000000000000000000000000000 M
b00000000000000000000000000000000 I
b000000000000000000000000000000 K
b000000000000000000000000000000000 y
b000000000000000000000000000000000 d
b00000000000000000000000000000000 "0
b000000000000000000000000 /
b0000000000000000 }
0c
b00000000000000000000000000000000 G
0"%
b00000000000000000000000000000000 *
b00000000000000000000000000000000 {
b00000000000000000000000000000000 ^
b00000000000000000000000000000000 ",
b0000000000000000000000000000 ?
b00000000000000000000000000000000 ,
b00000000000000000000000000000000 u
0_
b00000000000000000000000000000000 C
b0000000000000000000000000000 ""
b00000000000000000000000000000000 &
b000000000000000000000000000000 Z
b00000000000000000000000000000000 o
b00000000000000000000000000000000 =
b000000000000000000000000000000000 $
b0000000000000000000000000000000 "
b00000000000000000000000000000000 7
0j
b00000000000000000000000000000000 N
b00000 "#
b00000000000000000000000000000000 "3
02
b00000000000000000000000000000000 g
b00000000000000000000000000000000 R
b00000000000000000000000000000000 "-
b00000000000000000000000000000000 5
b00000000000000000000000000000000 ~
b00000000000000000000000000000000 x
b00000000000000000000000000000000 1
b000000000000000000000000000000 z
0\
0"&
b00000000000000000000000000000000 +
0s
b0000000000000000 F
b00000000000000000000000000000000 W
0"5
b00000000000000000000000000000000 v
$end
#0
14
1@
1D
1")
#1
1a
#6
b00100001010001111110110100110000 "+
b000000101011001111100101100010 f
b00100000010100111111100101100100 Q
b11001010000001000010011010011111 <
04
b1100101000000100 }
b10010110000100000110000111100010 h
b00011110000001001001111110111011 S
b010000001010110011111001011000 K
b10010000111000000100000010000000 6
b10011111111000010100100010000000 "'
1j
b01010111101111010000011000100000 b
b010011010011111110010100000010001 M
b010011010011111110010100000010001 y
b01000100100011000000010000000000 "!
b100011110001001010110000000111011 d
b00100000000000101010100000100000 G
b10011010011111110010100000010001 *
b10010110000100000110000111100010 {
b00010 "#
b10001010001010100010100000000000 ^
b00100000010100111111100101100100 I
b00010000101000111111011010011000 A
b00000100110010101001111100100110 ,
b00100000010100111111100101100100 u
b1111111001011001 `
b00100000010100111111100101100100 "2
b00000000000011000000100100000010 C
b110010100000010000100110 .
b00100000010100111111100101100100 &
b01000000101011001111100101100010 w
b100101011110111101000001100010 Z
1E
b11111110010110011000100000010100 =
b01011001000000000001010000000000 q
b01000000101000001111000001100000 ".
b1001111111100001010010001000 ?
b0001000010100011111101101001100 "
b00000000111111100000000010001000 "0
b00000000100000001100010010001000 k
0"(
b01011001100010000001010000000000 9
b000100110100111111100101000000100 $
b000001000010011010011111 P
b0110010110111111000101000010001 ;
b10011010011111110010100000010001 3
b00000000000000000010011010011111 ",
b11111110010110010000000000000000 g
b00000100000000001001111100000000 R
b0110 "$
b00100001001100110001000000100010 5
b00010000010101010000000000010001 ~
b00000000010100010101000101000100 i
1"&
0a
b01101001111011111001111000011110 7
b111111100101100110001000 /
1c
b00000010101100111110010110001000 N
b0010011010011111 F
b010101111011110100000110001000 z
b010110011000100000010100 e
b0101100111111110000101001000 ""
b101101001111011111001111000011110 ]
b1000100000010100 H
b11001011011111100010100001000100 +
b10010101111011110100000110001000 |
b01001100101010011111001001100000 t
b01011001111111100001010010001000 B
0%
b00100110100111111100101000000100 "3
b00000000110010100000000000100110 v
b00000101000011110000000100001000 Y
0D
b10001000000101001111111001011001 '
1"5
b10000000000100000110000001000000 x
b00000000000000001000100000010100 "-
b00011110001001010110000000111011 p
1[
b0010000101000111111011010011000 >
b0100110010101001111100100110 )
b00000100001001101001111100000000 !
b00010000001000110011001000010000 "/
b1100101101111110001010000100010 U
1@
b11111110010110010000000000000000 8
b10011110000101001111111111111011 #
b00011110001001010110000000111011 "1
0")
b01100101101111110001010000100010 W
b11001010000001000000000000000000 l
b11001010000001000000000000000000 O
b0000010011001010100111110010 n
#11
1a
#16
b00000001110000000000000000000000 "+
b000000101100000000000000000000 f
b00000000110100000000000000000000 Q
b00001011000000000000000000000000 <
b0000101100000000 }
b01010010000110010000101010110100 h
b01101011101011111111101010111001 S
b000000001011000000000000000000 K
b11010000000000000110000010010000 6
b11011111000010110110001110010000 "'
0j
b01000000001111011010111001001100 b
b010110000000011110110110110011100 M
b010110000000011110110110110011100 y
b01000000000011001000110001001100 "!
b010001011110011111111101011000001 d
b00000000100000000000000000000000 G
b10110000000011110110110110011100 *
b01010010000110010000101010110100 {
b10100 "#
b10100000000010100010100010001000 ^
b00000000110100000000000000000000 I
b00000000111000000000000000000000 A
b00000000000010110000000000000000 ,
b00000000110100000000000000000000 u
b1111000000001101 `
b00000000110100000000000000000000 "2
b00000000000000000000000000000000 C
b000010110000000000000000 .
b00000000110100000000000000000000 &
b00000000101100000000000000000000 w
b110100000000111101101011100100 Z
0E
b11110000000011010011100110110110 =
b00001101000000001011011000000000 q
b00000000101100000000000000000000 ".
b1101111100001011011000111001 ?
b0000000011100000000000000000000 "
b00000000111100000000000000111001 "0
1"(
b00000000110000000000000000000000 k
b00001101001110011011011000000000 9
b000000000000000000000101100000000 $
b000000000000000000000000 P
b0111000000001111100111100110110 ;
b10110000000011110110110110011100 3
b00000000000000000000000000000000 ",
b11110000000011010000000000000000 g
b00000000000000000000000000000000 R
b00110000000000110001001000100000 5
b00010000000001010100010100010100 ~
b00000000010100000000000000000000 i
0a
b10101101111001101111010101001100 7
b111100000000110100111001 /
0c
b00000010110000000000000000000000 N
b0000000000000000 F
b010000000011110110101110010011 z
b000011010011100110110110 e
b0000110111110000101101100011 ""
b110101101111001101111010101001100 ]
b0011100110110110 H
b11100000000111110011110011011000 +
b11010000000011110110101110010011 |
b00000000101100000000000000000000 t
b00001101111100001011011000111001 B
1%
b00000000000000000000101100000000 "3
b00000000000010110000000000000000 v
b00000000000011110000101100000011 Y
b00111001101101101111000000001101 '
b00010000000100000000000000000100 x
b00000000000000000011100110110110 "-
b10001011110011111111101011000001 p
b0000000111000000000000000000000 >
b0000000010110000000000000000 )
b00000000000000000000000000000000 !
b00000000001000000000000000000000 "/
b1110000000011111001111001101100 U
1@
b11110000000011010000000000000000 8
b01111011101111111111101010111101 #
b10001011110011111111101011000001 "1
b00001011000000000000000000000000 l
b01110000000011111001111001101100 W
b00001011000000000000000000000000 O
b0000000000001011000000000000 n
#21
1a
#26
b01010110000111001100101011001000 "+
b101110000010111001010110010001 f
b01010111000011011001101010011000 Q
b10110000111010100001100101011001 <
b1011000011101010 }
b00010110100101111011100010000011 h
b11011100011101100000101111010000 S
b101011100000101110010101100100 K
b00110000001100000001000010100000 6
b00111011001111100001110010100000 "'
b11010100111011000111101010110000 b
b011001010110011011000011101010011 M
b011001010110011011000011101010011 y
b11000100110011000100100010000000 "!
b011100001011110010110101111010110 d
b00000010000010001000101010001000 G
b11001010110011011000011101010011 *
b00010110100101111011100010000011 {
b00011 "#
b10001010100010001000001000000010 ^
b01010111000011011001101010011000 I
b10101011000011100110010101100100 A
b11101010101100000101100100011001 ,
b01010111000011011001101010011000 u
b1011001101010011 `
b01010111000011011001101010011000 "2
b00001110000010110000010100000001 C
b101100001110101000011001 .
b01010111000011011001101010011000 &
b10101110000010111001010110010001 w
b001101010011101100011110101011 Z
1E
b10110011010100111100101011100001 =
b01010011000000001110000100000000 q
b10100000000000001001000010010000 ".
b0011101100111110000111001010 ?
b1010101100001110011001010110010 "
b00000000101100110000000011001010 "0
b10001000000011000100010001000100 k
1"(
b01010011110010101110000100000000 9
b000011001010110011011000011101010 $
b111010100001100101011001 P
b1100010111001110010010111010001 ;
b11001010110011011000011101010011 3
b00000000000000000001100101011001 ",
b10110011010100110000000000000000 g
b11101010000000000101100100000000 R
b00000001000000100000001100100011 5
b01000000010001010000010101010001 ~
b01010101000001010001000000010000 i
0a
b11101001011010000100011101111101 7
b101100110101001111001010 /
b10111000001011100101011001000100 N
b0001100101011001 F
b110101001110110001111010101100 z
b010100111100101011100001 e
b0101001110110011111000011100 ""
b111101001011010000100011101111101 ]
b1100101011100001 H
b10001011100111001001011101000110 +
b00110101001110110001111010101100 |
b10101011000001011001000110010000 t
b01010011101100111110000111001010 B
0%
b00011001010110011011000011101010 "3
b00000000101100000000000000011001 v
b00000101000010110000111000001100 Y
b11001010111000011011001101010011 '
b00000010100000011011000000000011 x
b00000000000000001100101011100001 "-
b11100001011110010110101111010110 p
b0101011000011100110010101100100 >
b1010101100000101100100011001 )
b11101010000110010101100100000000 !
b00100011000000100010000100100000 "/
b1000101110011100100101110100011 U
0@
b10110011010100110000000000000000 8
b11011110111101111011101111010011 #
b11100001011110010110101111010110 "1
b10110000111010100000000000000000 l
b11000101110011100100101110100011 W
b10110000111010100000000000000000 O
b1110101010110000010110010001 n
#31
1a
#36
b01110111110000000110100000000000 "+
b101110101100001100000100000000 f
b01110111110100000011100000000000 Q
b00001011111011100000000000011100 <
b0000101111101110 }
b11010110111100110111000011101010 h
b10100110110111001100101010011000 S
1"%
b111011101011000011000001000000 K
b00100000101000001111000000000000 6
b00101011101000101111011100000000 "'
1j
b10011110101011111100100000011100 b
b001110000001011111011101001110010 M
b001110000001011111011101001110010 y
b10001100100011001100100000001100 "!
b010011001001111000100100110001000 d
b00100010100000000010100000000000 G
b01110000001011111011101001110010 *
b00101001000011001000111100010110 {
b01010 "#
b00001010000010001010000000001010 ^
b00000000000111000000101111101110 I
b10111011111000000011010000000000 A
b11101110000010110001110000000000 ,
b00000000000000000000000000000000 u
b1011101001110010 `
b00000000000111000000101111101110 "2
b00001110000000000000000100000000 C
b000010111110111000000000 .
b00000000000111000000101111101110 &
1"4
b11101110101100001100000100000000 w
b001001111010101111110010000001 Z
0E
b10111010011100100111000000101111 =
b01110010000000000010111100000000 q
b11100000101100001100000000000000 ".
1T
b0010101110100010111101110000 ?
b1011101111100000001101000000000 "
b00000000101110100000000001110000 "0
b10001000110000000000010000000000 k
1"(
b01110010011100000010111100000000 9
b000000000000111000000101111101110 $
b111011100000000000011100 P
b1000110110101110111110000000110 ;
b01001110010111011111010000001110 3
b00000000000000000000000000011100 ",
b10111010011100100000000000000000 g
b1001 "$
b11101110000000000001110000000000 R
b00000001001000100011000000000001 5
b01000100010101010101010000000100 ~
0"&
b01010101010100000001000000000000 i
0a
b00101001000011001000111100010110 7
b101110100111001001110000 /
0c
b10111010110000110000010000000000 N
b0000000000011100 F
b100111101010111111001000000111 z
b011100100111000000101111 e
b0111001010111010001011110111 ""
b100101001000011001000111100010110 ]
b0111000000101111 H
b00011011010111011111000000011010 +
b00100111101010111111001000000111 |
b11100000101100011100000000000000 t
b01110010101110100010111101110000 B
0%
b00000000000111000000101111101110 "3
b00000000000010110000000000000000 v
b00000111000010110000001000000111 Y
b01110000001011111011101001110010 '
0"5
b01010000001000110011000001100010 x
b00000000000000000111000000101111 "-
0[
b10011001001111000100100110001000 p
b0111011111000000011010000000000 >
b1110000010110001110000000000 )
b11101110000000000001110000000000 !
b00110011001000000011000000000000 "/
b0001101101011101111100000001101 U
0@
b10111010011100100000000000000000 8
b11110110111111111111101011111010 #
b10011001001111000100100110001000 "1
b00001011111011100000000000000000 l
b10001101101011101111100000001101 W
b00001011111011100000000000000000 O
1:
b1110111000001011000111000000 n
#41
1a
#46
b00101101111001111110100000000000 "+
b101001111111001111000100000000 f
b01101001111100111111100000000000 Q
b11001111100101100000000000011111 <
b1100111110010110 }
b01110110011110001110110111001011 h
b11100101010101011101001110110100 S
0"%
b011010011111110011110001000000 K
b11110000111000001101000000110000 6
b11110011111000101101100100110000 "'
0j
b11011111100011110100100011100100 b
b011111110011111001011010011001001 M
b011111110011111001011010011001001 y
b11001100100011000100100011000100 "!
b100001001101001100010110001001010 d
b00101000101000101010100000000000 G
12
b11111110011111001011010011001001 *
b01110110011110001110110111001011 {
b01011 "#
b10101010001010001010000010001000 ^
b00010010001010000010110001001011 I
b10010110111100111111010000000000 A
b10010110110011110001111100000000 ,
b00010010001010000010110001001011 u
b0011111001111111 `
b00010010001010000010110001001011 "2
b00001001000011000000000100000000 C
b110011111001011000000000 .
b00010010001010000010110001001011 &
0"4
b01101001111111001111000100000000 w
b111101111110001111010010001110 Z
1E
b00111110011111111001001100101101 =
b01111111000000000010110100000000 q
b01100000111100001111000000000000 ".
0T
b1111001111100010110110010011 ?
b1001011011110011111101000000000 "
b00000000001111100000000010010011 "0
0s
0"(
b10000100110000001100010000000000 k
b01111111100100110010110100000000 9
b000000000000111111100111110010110 $
b100101100000000000011111 P
b1111110110111100011110001100011 ;
b11111110011111001011010011001001 3
b00000000000000000000000000011111 ",
b00111110011111110000000000000000 g
b0010 "$
b10010110000000000001111100000000 R
b00110001001100000011000000000010 5
b01010100010101000001010001000001 ~
b01000001010100010101000000000000 i
0a
b10001001100001110001001000110101 7
b001111100111111110010011 /
0c
b10100111111100111100010000000000 N
b0000000000011111 F
b110111111000111101001000111001 z
b011111111001001100101101 e
b0111111100111110001011011001 ""
b110001001100001110001001000110101 ]
b1001001100101101 H
b11111011011110001111000110001100 +
b11110111111000111101001000111001 |
b01101100111100011111000000000000 t
b01111111001111100010110110010011 B
b00010010001010000010110001001011 -
0%
b00000000000111111100111110010110 "3
b00000000110011110000000000000000 v
b00000111000000110000001000001001 Y
b10010011001011010011111001111111 '
1"5
b00010010001010000010110001001011 x
b00000000000000001001001100101101 "-
1[
b00001001101001100010110001001010 p
b0010110111100111111010000000000 >
b0110110011110001111100000000 )
b10010110000000000001111100000000 !
b00010010001100110011000000000000 "/
b1111101101111000111100011000110 U
0@
b00111110011111110000000000000000 8
b11110111011111011111111111111111 #
b00001001101001100010110001001010 "1
b11001111100101100000000000000000 l
b11111101101111000111100011000110 W
b11001111100101100000000000000000 O
0:
b1001011011001111000111110000 n
#51
1a
#56
b10111000101010110101110000000000 "+
b010011010101011010101100000000 f
b10101100101010100101110100000000 Q
b01010101001101010000000010111010 <
b0101010100110101 }
b00010110100100110100101011100111 h
b10101111110010100001111001011101 S
b010100110101010110101011000000 K
b10100000010000001001000010010000 6
b10100101010001011001101110010000 "'
b10101101000101100101011001101100 b
b001011101001010101001101010011101 M
10
b001011101001010101001101010011101 y
b10001100000001000100010001001100 "!
b110100010110001100000100111010011 d
b10101000101010100000100000000000 G
02
b01011101001010101001101010011101 *
b11101001011011001011010100011001 {
b00111 "#
b00001000001010101000101010001000 ^
b00000000000000000000000000000000 I
b01011100010101011010111000000000 A
b00110101010101011011101000000000 ,
b00000000000000000000000000000000 u
b0101010010111010 `
b00000000000000000000000000000000 "2
b00000011000001010000101100000000 C
b010101010011010100000000 .
b00000000000000000000000000000000 &
b01010011010101011010101100000000 w
b101010110100010110010101100110 Z
b01010100101110101011100101011001 =
b10111010000000000101100100000000 q
b01010000010100001010000000000000 ".
1\
1T
b1010010101000101100110111001 ?
b0101110001010101101011100000000 "
b00000000010101000000000010111001 "0
b01001100010001001000110000000000 k
1"(
b10111010101110010101100100000000 9
b000000000101110100101010100110101 $
b001101010000000010111010 P
b1010111000010101011001010110111 ;
b01011101001010101001101010011101 3
b00000000000000000000000010111010 ",
b01010100101110100000000000000000 g
b00110101000000001011101000000000 R
b0111 "$
b00100010000100010010000100100010 5
b01010101000000000001000000010101 ~
b00000100000000000101010100000000 i
0a
b11101001011011001011010100011001 7
b010101001011101010111001 /
b01001101010101101010110000000000 N
b0000000010111010 F
b101011010001011001010110011011 z
b101110101011100101011001 e
b1011101001010100010110011011 ""
b111101001011011001011010100011001 ]
b1011100101011001 H
b01011100001010101100101011011100 +
b10101011010001011001010110011011 |
b01010101010110111010000000000000 t
b10111010010101000101100110111001 B
b00000000000000000000000000000000 -
b00000000101110100101010100110101 "3
b00000000010101010000000000000000 v
b00001011000001010000010100001011 Y
b10111001010110010101010010111010 '
0"5
b00010000000100010100000010100010 x
b00000000000000001011100101011001 "-
b10100010110001100000100111010011 p
b1011100010101011010111000000000 >
b0101010101011011101000000000 )
b00110101000000001011101000000000 !
b00010000000100010010001000000000 "/
b0101110000101010110010101101110 U
b01010100101110100000000000000000 8
b10111111110110110101111011111111 #
b10100010110001100000100111010011 "1
b01010101001101010000000000000000 l
b10101110000101010110010101101110 W
b01010101001101010000000000000000 O
b0011010101010101101110100000 n
#61
1a
#66
b10110100000000000000000000000000 "+
b111010000000000000000000000000 f
b11100101000000000000000000000000 Q
b00000000101001110000000000000000 <
b0000000010100111 }
b11000110111100101111101100011000 h
b01001100110100111000000011111101 S
b011110100000000000000000000000 K
b01010000101100000001000010100000 6
b01010111101100100001100010100000 "'
1j
b01111010110111000100101010100000 b
b010100111110111101000010001010001 M
00
b010100111110111101000010001010001 y
b01001000110011000100100010000000 "!
b101010001000101000111011011111101 d
b10100000000000000000000000000000 G
12
b10100111110111101000010001010001 *
b11000110111100101111101100011000 {
b11000 "#
b10100010100010101000000000000000 ^
b10000010001000000111101100000000 I
b11011010000000000000000000000000 A
b10100111000000000000000000000000 ,
b10000010001000000111101100000000 u
b0111101111100101 `
b10000010001000000111101100000000 "2
b00001010000000000000000000000000 C
b000000001010011100000000 .
b10000010001000000111101100000000 &
b01111010000000000000000000000000 w
b010111101011011100010010101010 Z
b01111011111001011000101000100001 =
b11100101000000000010000100000000 q
0\
b01110000000000000000000000000000 ".
0T
b0101011110110010000110001010 ?
b1101101000000000000000000000000 "
b00000000011110110000000010001010 "0
0s
b11001000000000000000000000000000 k
0"(
b11100101100010100010000100000000 9
b000000000000000000000000010100111 $
b101001110000000000000000 P
b0101101111101101010010001010001 ;
b10100111110111101000010001010001 3
b00000000000000000000000000000000 ",
b01111011111001010000000000000000 g
b0010 "$
b10100111000000000000000000000000 R
b00010011001000010000000000100010 5
b00000101010101000000010001010001 ~
b01000101000000000000000000000000 i
0a
b00111001000011010000010011101000 7
b011110111110010110001010 /
1c
b11101000000000000000000000000000 N
b0000000000000000 F
b011110101101110001001010101000 z
b111001011000101000100001 e
b1110010101111011001000011000 ""
b100111001000011010000010011101000 ]
b1000101000100001 H
b10110111110110101001000101000100 +
b01011110101101110001001010101000 |
b01110000000000000000000000000000 t
b11100101011110110010000110001010 B
b10000010001000000111101100000000 -
0%
b00000000000000000000000010100111 "3
b00000000000000000000000000000000 v
b00001110000001110000001000001000 Y
b10001010001000010111101111100101 '
1"5
b10000010001000000111101100000000 x
b00000000000000001000101000100001 "-
b01010001000101000111011011111101 p
b1011010000000000000000000000000 >
b0111000000000000000000000000 )
b10100111000000000000000000000000 !
b00010010000000000000000000000000 "/
b1011011111011010100100010100010 U
1@
b01111011111001010000000000000000 8
b11001110111100111111101111111101 #
b01010001000101000111011011111101 "1
b00000000101001110000000000000000 l
b01011011111011010100100010100010 W
b00000000101001110000000000000000 O
b1010011100000000000000000000 n
#71
1a
#76
b01100110011010100000101000000000 "+
b001100110001010000010100000000 f
b00110011001110100000101000000000 Q
b01011100110011000000000001010000 <
b0101110011001100 }
b11010000111110110100000001001000 h
b11001101110010000111101001000010 S
b110011001100010100000101000000 K
b10100000101000000011000011010000 6
b10100011101000110011000111010000 "'
b10000010100011001100111101000100 b
b001010000010111001100110010111000 M
b001010000010111001100110010111000 y
b10000000100011001100110001000100 "!
b011101110001011100111101001010010 d
b00100010001010100000101000000000 G
02
b01010000010111001100110010111000 *
b11010000111110110100000001001000 {
b01000 "#
b00000000000010001000100010101000 ^
b11001101110010000111101001000010 I
b00110011001101010000010100000000 A
b11001100010111000101000000000000 ,
b11001101110010000111101001000010 u
b0011101000001010 `
b11001101110010000111101001000010 "2
b00001100000001010000010100000000 C
b010111001100110000000000 .
b11001101110010000111101001000010 &
b11001100110001010000010100000000 w
b11001101110010000111101001000010 o
b101000001010001100110011110100 Z
0E
b00111010000010100001110100110011 =
b00001010000000000011001100000000 q
b11000000110000000000000000000000 ".
b1010001110100011001100011101 ?
b0011001100110101000001010000000 "
b00000000001110100000000000011101 "0
1"(
b00000000000001000000010000000000 k
b11001101110010000111101001000010 V
b00001010000111010011001100000000 9
b000000000010100000101110011001100 $
1m
b110011000000000001010000 P
b1010000010101100110011000111010 ;
b01010000010111001100110010111000 3
b00000000000000000000000001010000 ",
b00111010000010100000000000000000 g
b11001100000000000101000000000000 R
b0100 "$
b00100000001000000000000000110000 5
b01010000010101000100010000010000 ~
b00010001000100000000000000000000 i
0a
b00101111000001001011111110111000 7
b001110100000101000011101 /
0c
b00110011000101000001010000000000 N
b0000000001010000 F
b100000101000110011001111010001 z
b000010100001110100110011 e
b0000101000111010001100110001 ""
b100101111000001001011111110111000 ]
b0001110100110011 H
b01000001010110011001100011101000 +
b10100000101000110011001111010001 |
b11000101110001010000000000000000 t
b00001010001110100011001100011101 B
b11001101110010000111101001000010 -
0%
b00000000010100000101110011001100 "3
b00000000010111000000000000000000 v
b00000000000000110000001100000001 Y
b00011101001100110011101000001010 '
0"5
b00010000001100110000000000001000 x
b00000000000000000001110100110011 "-
b11101110001011100111101001010010 p
0[
b0110011001101010000010100000000 >
b1100010111000101000000000000 )
b11001100000000000101000000000000 !
b00110011001100010000000100000000 "/
b0100000101011001100110001110100 U
0@
b00111010000010100000000000000000 8
b11011101111110110111101001001010 #
b11101110001011100111101001010010 "1
b01011100110011000000000000000000 l
b10100000101011001100110001110100 W
b01011100110011000000000000000000 O
b1100110001011100010100000000 n
#81
1a
